[
  {
    "Name": "Adungosi ",
    "Code": "50413"
  },
  {
    "Name": "Agenga ",
    "Code": "40406"
  },
  {
    "Name": "Ahero ",
    "Code": "40101"
  },
  {
    "Name": "Ainabkoi ",
    "Code": "30101"
  },
  {
    "Name": "Akala ",
    "Code": "40139"
  },
  {
    "Name": "Aluor ",
    "Code": "40140"
  },
  {
    "Name": "Amagoro ",
    "Code": "50244"
  },
  {
    "Name": "Amukura ",
    "Code": "50403"
  },
  {
    "Name": "Andigo ",
    "Code": "40136"
  },
  {
    "Name": "Angurai ",
    "Code": "50412"
  },
  {
    "Name": "Anyiko ",
    "Code": "40616"
  },
  {
    "Name": "Archer`s Post ",
    "Code": "60302"
  },
  {
    "Name": "Arror ",
    "Code": "30708"
  },
  {
    "Name": "Asembo Bay ",
    "Code": "40619"
  },
  {
    "Name": "Asumbi ",
    "Code": "40309"
  },
  {
    "Name": "Athi River ",
    "Code": "00204"
  },
  {
    "Name": "Awach Tende ",
    "Code": "40328"
  },
  {
    "Name": "Bahati ",
    "Code": "20113"
  },
  {
    "Name": "Bamburi ",
    "Code": "80101"
  },
  {
    "Name": "Banja ",
    "Code": "50316"
  },
  {
    "Name": "Bar Ober ",
    "Code": "50411"
  },
  {
    "Name": "Baragoi ",
    "Code": "20601"
  },
  {
    "Name": "Baraton ",
    "Code": "30306"
  },
  {
    "Name": "Baricho ",
    "Code": "10302"
  },
  {
    "Name": "Bartolimo ",
    "Code": "30412"
  },
  {
    "Name": "Barwesa ",
    "Code": "30412"
  },
  {
    "Name": "Bissil ",
    "Code": "01101"
  },
  {
    "Name": "Bokoli ",
    "Code": "50206"
  },
  {
    "Name": "Bomet ",
    "Code": "20400"
  },
  {
    "Name": "Bondeni ",
    "Code": "20101"
  },
  {
    "Name": "Bondo ",
    "Code": "40601"
  },
  {
    "Name": "Booker ",
    "Code": "50137"
  },
  {
    "Name": "Boro ",
    "Code": "40620"
  },
  {
    "Name": "Budalangi ",
    "Code": "50415"
  },
  {
    "Name": "Bugar ",
    "Code": "30702"
  },
  {
    "Name": "Buhuyi ",
    "Code": "50416"
  },
  {
    "Name": "Bukembe ",
    "Code": "50233"
  },
  {
    "Name": "Bukiri ",
    "Code": "50417"
  },
  {
    "Name": "Bukura ",
    "Code": "50105"
  },
  {
    "Name": "Bulimbo ",
    "Code": "50109"
  },
  {
    "Name": "Bumala ",
    "Code": "50404"
  },
  {
    "Name": "Bumutiru ",
    "Code": "50418"
  },
  {
    "Name": "Bungoma ",
    "Code": "50200"
  },
  {
    "Name": "Bunyore ",
    "Code": "50301"
  },
  {
    "Name": "Bura Tana ",
    "Code": "70104"
  },
  {
    "Name": "Burnt Forest ",
    "Code": "30102"
  },
  {
    "Name": "Buru Buru ",
    "Code": "00515"
  },
  {
    "Name": "Busia ",
    "Code": "50400"
  },
  {
    "Name": "Butere ",
    "Code": "50101"
  },
  {
    "Name": "Butula ",
    "Code": "50405"
  },
  {
    "Name": "Buyofu ",
    "Code": "50210"
  },
  {
    "Name": "Chamakanga ",
    "Code": "50302"
  },
  {
    "Name": "Changamwe ",
    "Code": "80102"
  },
  {
    "Name": "Chavakali ",
    "Code": "50317"
  },
  {
    "Name": "Chebiemit ",
    "Code": "30706"
  },
  {
    "Name": "Cheborge ",
    "Code": "20215"
  },
  {
    "Name": "Chebororwa ",
    "Code": "30125"
  },
  {
    "Name": "Chebunyo ",
    "Code": "20401"
  },
  {
    "Name": "Chemamul ",
    "Code": "20222"
  },
  {
    "Name": "Chemaner ",
    "Code": "20407"
  },
  {
    "Name": "Chemase ",
    "Code": "40143"
  },
  {
    "Name": "Chemelil ",
    "Code": "40116"
  },
  {
    "Name": "Chemiron ",
    "Code": "30206"
  },
  {
    "Name": "Chepareria ",
    "Code": "30605"
  },
  {
    "Name": "Chepkorio ",
    "Code": "30129"
  },
  {
    "Name": "Chepsonoi ",
    "Code": "30309"
  },
  {
    "Name": "Cheptais ",
    "Code": "50201"
  },
  {
    "Name": "Cheptalal ",
    "Code": "20410"
  },
  {
    "Name": "Chepterwai ",
    "Code": "30121"
  },
  {
    "Name": "Cheptongei ",
    "Code": "30709"
  },
  {
    "Name": "Chepsinendet ",
    "Code": "20217"
  },
  {
    "Name": "Chesoi ",
    "Code": "30712"
  },
  {
    "Name": "Chiakanyinga ",
    "Code": "60410"
  },
  {
    "Name": "Chaikariga ",
    "Code": "60409"
  },
  {
    "Name": "Chogoria ",
    "Code": "60401"
  },
  {
    "Name": "Chuka ",
    "Code": "60400"
  },
  {
    "Name": "Chuvuli ",
    "Code": "90219"
  },
  {
    "Name": "Chumvi ",
    "Code": "90147"
  },
  {
    "Name": "Chumvini ",
    "Code": "80314"
  },
  {
    "Name": "Chwele ",
    "Code": "50202"
  },
  {
    "Name": "City Square ",
    "Code": "00200"
  },
  {
    "Name": "Coast Gen Hsp ",
    "Code": "80103"
  },
  {
    "Name": "Dadaab ",
    "Code": "70103"
  },
  {
    "Name": "Dago ",
    "Code": "40112"
  },
  {
    "Name": "Dandora ",
    "Code": "00516"
  },
  {
    "Name": "Daraja Mbili ",
    "Code": "40117"
  },
  {
    "Name": "Daystar University ",
    "Code": "90145"
  },
  {
    "Name": "Dede ",
    "Code": "40331"
  },
  {
    "Name": "Diani Beach ",
    "Code": "80401"
  },
  {
    "Name": "Docks ",
    "Code": "80104"
  },
  {
    "Name": "Dol Dol ",
    "Code": "10401"
  },
  {
    "Name": "Dorofu ",
    "Code": "50213"
  },
  {
    "Name": "Dudi ",
    "Code": "40621"
  },
  {
    "Name": "Dundori ",
    "Code": "20118"
  },
  {
    "Name": "Eastleigh ",
    "Code": "00610"
  },
  {
    "Name": "Egerton University ",
    "Code": "20115"
  },
  {
    "Name": "Ekalakala ",
    "Code": "90139"
  },
  {
    "Name": "El Wak ",
    "Code": "70301"
  },
  {
    "Name": "Elburgon ",
    "Code": "20102"
  },
  {
    "Name": "Eldama Ravine ",
    "Code": "20103"
  },
  {
    "Name": "Eldoret Airport",
    "Code": "30124"
  },
  {
    "Name": "Eldoret GPO ",
    "Code": "30100"
  },
  {
    "Name": "Elementatita ",
    "Code": "20119"
  },
  {
    "Name": "Elugulu ",
    "Code": "50429"
  },
  {
    "Name": "Emali ",
    "Code": "90121"
  },
  {
    "Name": "Embakasi ",
    "Code": "00501"
  },
  {
    "Name": "Embu ",
    "Code": "60100"
  },
  {
    "Name": "Emining ",
    "Code": "20140"
  },
  {
    "Name": "Emuhaya ",
    "Code": "50314"
  },
  {
    "Name": "Endarasha ",
    "Code": "10107"
  },
  {
    "Name": "Endau ",
    "Code": "90206"
  },
  {
    "Name": "Endebess ",
    "Code": "30201"
  },
  {
    "Name": "Enosaen ",
    "Code": "40703"
  },
  {
    "Name": "Enterprise Road ",
    "Code": "00500"
  },
  {
    "Name": "Eregi ",
    "Code": "50303"
  },
  {
    "Name": "Etago ",
    "Code": "40208"
  },
  {
    "Name": "Ewaso Kedong ",
    "Code": "00242"
  },
  {
    "Name": "Faza ",
    "Code": "80501"
  },
  {
    "Name": "Fort Ternan ",
    "Code": "20209"
  },
  {
    "Name": "Funyula ",
    "Code": "50406"
  },
  {
    "Name": "Gacharage-ini ",
    "Code": "10210"
  },
  {
    "Name": "Gachoka ",
    "Code": "60119"
  },
  {
    "Name": "Gaitu ",
    "Code": "60209"
  },
  {
    "Name": "Gakere Road ",
    "Code": "10109"
  },
  {
    "Name": "Gakindu ",
    "Code": "10111"
  },
  {
    "Name": "Gambogi ",
    "Code": "50318"
  },
  {
    "Name": "Ganze ",
    "Code": "80205"
  },
  {
    "Name": "Garba Tulla ",
    "Code": "60301"
  },
  {
    "Name": "Garissa ",
    "Code": "70100"
  },
  {
    "Name": "Garsen ",
    "Code": "80201"
  },
  {
    "Name": "Gatara ",
    "Code": "10212"
  },
  {
    "Name": "Gathiruini ",
    "Code": "00239"
  },
  {
    "Name": "Gathugu ",
    "Code": "00240"
  },
  {
    "Name": "Gatimbi ",
    "Code": "60217"
  },
  {
    "Name": "Gatitu ",
    "Code": "10114"
  },
  {
    "Name": "Gatondo ",
    "Code": "10115"
  },
  {
    "Name": "Gatugura ",
    "Code": "10305"
  },
  {
    "Name": "Gatukuyu ",
    "Code": "01028"
  },
  {
    "Name": "Gatundu ",
    "Code": "01030"
  },
  {
    "Name": "Gatunga ",
    "Code": "60404"
  },
  {
    "Name": "Gatura ",
    "Code": "01013"
  },
  {
    "Name": "Gede ",
    "Code": "80208"
  },
  {
    "Name": "Gembe ",
    "Code": "40312"
  },
  {
    "Name": "Gesima ",
    "Code": "40503"
  },
  {
    "Name": "Gesusu ",
    "Code": "40201"
  },
  {
    "Name": "Giakanja ",
    "Code": "10108"
  },
  {
    "Name": "Gigiri ",
    "Code": "00601"
  },
  {
    "Name": "Gikoe ",
    "Code": "10213"
  },
  {
    "Name": "Gilgil ",
    "Code": "20116"
  },
  {
    "Name": "Giribe ",
    "Code": "40407"
  },
  {
    "Name": "Gisambai ",
    "Code": "50304"
  },
  {
    "Name": "Githiga ",
    "Code": "00903"
  },
  {
    "Name": "Githogo ",
    "Code": "60205"
  },
  {
    "Name": "Githumu ",
    "Code": "01032"
  },
  {
    "Name": "Githunguri ",
    "Code": "00216"
  },
  {
    "Name": "Gitimene ",
    "Code": "60212"
  },
  {
    "Name": "Gituamba ",
    "Code": "01003"
  },
  {
    "Name": "Gitugi ",
    "Code": "10209"
  },
  {
    "Name": "Gongini ",
    "Code": "80206"
  },
  {
    "Name": "Gorgor ",
    "Code": "20411"
  },
  {
    "Name": "Griftu ",
    "Code": "70202"
  },
  {
    "Name": "Habaswein ",
    "Code": "70201"
  },
  {
    "Name": "Hakati ",
    "Code": "50407"
  },
  {
    "Name": "Hamisi ",
    "Code": "50312"
  },
  {
    "Name": "Hawinga ",
    "Code": "40640"
  },
  {
    "Name": "Highridge ",
    "Code": "00612"
  },
  {
    "Name": "Hola ",
    "Code": "70101"
  },
  {
    "Name": "Homa Bay ",
    "Code": "40300"
  },
  {
    "Name": "Huruma ",
    "Code": "30109"
  },
  {
    "Name": "Ichichi ",
    "Code": "10227"
  },
  {
    "Name": "Igare ",
    "Code": "40209"
  },
  {
    "Name": "Igoji ",
    "Code": "60402"
  },
  {
    "Name": "Igwamiti ",
    "Code": "20307"
  },
  {
    "Name": "Iiani ",
    "Code": "90120"
  },
  {
    "Name": "Ikalaasa ",
    "Code": "90135"
  },
  {
    "Name": "Ikerege ",
    "Code": "40415"
  },
  {
    "Name": "Ikinu ",
    "Code": "00904"
  },
  {
    "Name": "Ikonge ",
    "Code": "40501"
  },
  {
    "Name": "Ikutha ",
    "Code": "90207"
  },
  {
    "Name": "Ikuu ",
    "Code": "60405"
  },
  {
    "Name": "Ilasit ",
    "Code": "00214"
  },
  {
    "Name": "Ileho ",
    "Code": "50111"
  },
  {
    "Name": "Imanga ",
    "Code": "50112"
  },
  {
    "Name": "Ishiara ",
    "Code": "60102"
  },
  {
    "Name": "Isibania ",
    "Code": "40414"
  },
  {
    "Name": "Isinya ",
    "Code": "01102"
  },
  {
    "Name": "Isiolo ",
    "Code": "60300"
  },
  {
    "Name": "Isulu ",
    "Code": "50114"
  },
  {
    "Name": "Iten ",
    "Code": "30700"
  },
  {
    "Name": "Ithanga ",
    "Code": "01015"
  },
  {
    "Name": "Itibo ",
    "Code": "40504"
  },
  {
    "Name": "Itumbe ",
    "Code": "40210"
  },
  {
    "Name": "Jebrok ",
    "Code": "50319"
  },
  {
    "Name": "Juja Road ",
    "Code": "00622"
  },
  {
    "Name": "Kaanwa ",
    "Code": "60411"
  },
  {
    "Name": "Kabarak University ",
    "Code": "20157"
  },
  {
    "Name": "Kabarnet ",
    "Code": "30400"
  },
  {
    "Name": "Kabartonjo ",
    "Code": "30401"
  },
  {
    "Name": "Kabati ",
    "Code": "90205"
  },
  {
    "Name": "Kabazi ",
    "Code": "20114"
  },
  {
    "Name": "Kabianga ",
    "Code": "20201"
  },
  {
    "Name": "Kabiemit ",
    "Code": "30130"
  },
  {
    "Name": "Kabiyet ",
    "Code": "30303"
  },
  {
    "Name": "Kabujoi ",
    "Code": "30305"
  },
  {
    "Name": "Kabula ",
    "Code": "50214"
  },
  {
    "Name": "Kacheliba ",
    "Code": "30601"
  },
  {
    "Name": "Kadel ",
    "Code": "40314"
  },
  {
    "Name": "Kadongo ",
    "Code": "40223"
  },
  {
    "Name": "Kaewa ",
    "Code": "90150"
  },
  {
    "Name": "Kagio ",
    "Code": "10306"
  },
  {
    "Name": "Kagumo ",
    "Code": "10307"
  },
  {
    "Name": "Kagunduini ",
    "Code": "01033"
  },
  {
    "Name": "Kagwe ",
    "Code": "00223"
  },
  {
    "Name": "Kaheho ",
    "Code": "20304"
  },
  {
    "Name": "Kahuhia ",
    "Code": "10206"
  },
  {
    "Name": "Kahuro ",
    "Code": "10201"
  },
  {
    "Name": "Kahuti ",
    "Code": "10214"
  },
  {
    "Name": "Kaimosi ",
    "Code": "50305"
  },
  {
    "Name": "Kainuk ",
    "Code": "30604"
  },
  {
    "Name": "Kairo ",
    "Code": "10215"
  },
  {
    "Name": "Kajiado ",
    "Code": "01100"
  },
  {
    "Name": "Kakamega ",
    "Code": "50100"
  },
  {
    "Name": "Kakemer ",
    "Code": "50419"
  },
  {
    "Name": "Kakibora ",
    "Code": "30216"
  },
  {
    "Name": "Kakoneni ",
    "Code": "80209"
  },
  {
    "Name": "Kakuma ",
    "Code": "30501"
  },
  {
    "Name": "Kakunga ",
    "Code": "50115"
  },
  {
    "Name": "Kakuzi ",
    "Code": "01014"
  },
  {
    "Name": "Kalamba ",
    "Code": "90122"
  },
  {
    "Name": "Kalawa ",
    "Code": "90126"
  },
  {
    "Name": "Kalimoni ",
    "Code": "01001"
  },
  {
    "Name": "Kalokol ",
    "Code": "30502"
  },
  {
    "Name": "Kaloleni ",
    "Code": "80105"
  },
  {
    "Name": "Kamaget ",
    "Code": "20218"
  },
  {
    "Name": "Kamahuha ",
    "Code": "10217"
  },
  {
    "Name": "Kamara ",
    "Code": "20134"
  },
  {
    "Name": "Kambiri ",
    "Code": "50116"
  },
  {
    "Name": "Kambiti ",
    "Code": "10226"
  },
  {
    "Name": "Kamiti ",
    "Code": "00607"
  },
  {
    "Name": "Kampi Ya Samaki ",
    "Code": "30406"
  },
  {
    "Name": "Kamuriai ",
    "Code": "50408"
  },
  {
    "Name": "Kamuwongo ",
    "Code": "90403"
  },
  {
    "Name": "Kamwaura ",
    "Code": "20132"
  },
  {
    "Name": "Kamwosor ",
    "Code": "30113"
  },
  {
    "Name": "Kandara ",
    "Code": "01034"
  },
  {
    "Name": "Kandiege ",
    "Code": "40304"
  },
  {
    "Name": "Kangari ",
    "Code": "10218"
  },
  {
    "Name": "Kangema ",
    "Code": "10202"
  },
  {
    "Name": "Kangemi ",
    "Code": "00625"
  },
  {
    "Name": "Kangundo ",
    "Code": "90115"
  },
  {
    "Name": "Kanja ",
    "Code": "60118"
  },
  {
    "Name": "Kanjuku ",
    "Code": "01004"
  },
  {
    "Name": "Kanyakine ",
    "Code": "60206"
  },
  {
    "Name": "Kanyenyaini ",
    "Code": "10220"
  },
  {
    "Name": "Kanyuambora ",
    "Code": "60106"
  },
  {
    "Name": "Kapcheno ",
    "Code": "30304"
  },
  {
    "Name": "Kapcherop ",
    "Code": "30204"
  },
  {
    "Name": "Kapchorwa ",
    "Code": "30311"
  },
  {
    "Name": "Kapedo ",
    "Code": "30410"
  },
  {
    "Name": "Kapenguria ",
    "Code": "30600"
  },
  {
    "Name": "Kapkatet ",
    "Code": "20214"
  },
  {
    "Name": "Kapkelet ",
    "Code": "20219"
  },
  {
    "Name": "Kapkenda ",
    "Code": "30119"
  },
  {
    "Name": "Kapkugerwet ",
    "Code": "20206"
  },
  {
    "Name": "Kapngetuny ",
    "Code": "30111"
  },
  {
    "Name": "Kapsabet ",
    "Code": "30300"
  },
  {
    "Name": "Kapsara ",
    "Code": "30208"
  },
  {
    "Name": "Kapsoit ",
    "Code": "20211"
  },
  {
    "Name": "Kapsokwony ",
    "Code": "50203"
  },
  {
    "Name": "Kapsowar ",
    "Code": "30705"
  },
  {
    "Name": "Kapsumbeiwa ",
    "Code": "30313"
  },
  {
    "Name": "Kapsuser ",
    "Code": "20207"
  },
  {
    "Name": "Kaptagat ",
    "Code": "30114"
  },
  {
    "Name": "Kaptalamwa ",
    "Code": "30710"
  },
  {
    "Name": "Kaptama ",
    "Code": "50234"
  },
  {
    "Name": "Kaptarakwa ",
    "Code": "30701"
  },
  {
    "Name": "Kaptebengwet ",
    "Code": "20221"
  },
  {
    "Name": "Kaptel ",
    "Code": "30312"
  },
  {
    "Name": "Kapteren ",
    "Code": "30711"
  },
  {
    "Name": "Karaba ",
    "Code": "60105"
  },
  {
    "Name": "Karandi ",
    "Code": "20328"
  },
  {
    "Name": "Karatina ",
    "Code": "10101"
  },
  {
    "Name": "Karatu ",
    "Code": "00233"
  },
  {
    "Name": "Karen ",
    "Code": "00502"
  },
  {
    "Name": "Karingari ",
    "Code": "60107"
  },
  {
    "Name": "Kariobangi ",
    "Code": "00615"
  },
  {
    "Name": "Kariua ",
    "Code": "10231"
  },
  {
    "Name": "Karota ",
    "Code": "40505"
  },
  {
    "Name": "Karungu  ",
    "Code": "40401"
  },
  {
    "Name": "Karuri ",
    "Code": "00219"
  },
  {
    "Name": "Karurumo ",
    "Code": "60117"
  },
  {
    "Name": "Kasarani ",
    "Code": "00608"
  },
  {
    "Name": "Kasigau ",
    "Code": "80307"
  },
  {
    "Name": "Kasikeu ",
    "Code": "90123"
  },
  {
    "Name": "Katangi ",
    "Code": "90106"
  },
  {
    "Name": "Kathiani ",
    "Code": "90105"
  },
  {
    "Name": "Kathonzweni ",
    "Code": "90302"
  },
  {
    "Name": "Kathwana ",
    "Code": "60406"
  },
  {
    "Name": "Katito ",
    "Code": "40118"
  },
  {
    "Name": "Katse ",
    "Code": "90404"
  },
  {
    "Name": "Katutu ",
    "Code": "90217"
  },
  {
    "Name": "Kaviani ",
    "Code": "90107"
  },
  {
    "Name": "Kavuti ",
    "Code": "90405"
  },
  {
    "Name": "Kayole ",
    "Code": "00518"
  },
  {
    "Name": "Kebirigo ",
    "Code": "40506"
  },
  {
    "Name": "Kedowa ",
    "Code": "20220"
  },
  {
    "Name": "Keekorok ",
    "Code": "20501"
  },
  {
    "Name": "Kegogi ",
    "Code": "40515"
  },
  {
    "Name": "Kegonga ",
    "Code": "40416"
  },
  {
    "Name": "Kehancha ",
    "Code": "40413"
  },
  {
    "Name": "Kendu Bay ",
    "Code": "40301"
  },
  {
    "Name": "Kenol (Makuyu) ",
    "Code": "01020"
  },
  {
    "Name": "Kenyatta National Hospital ",
    "Code": "00202"
  },
  {
    "Name": "Kenyatta University ",
    "Code": "00609"
  },
  {
    "Name": "Kenyenya ",
    "Code": "40211"
  },
  {
    "Name": "Kericho ",
    "Code": "20200"
  },
  {
    "Name": "Keroka ",
    "Code": "40202"
  },
  {
    "Name": "Kerugoya ",
    "Code": "10300"
  },
  {
    "Name": "Kerwa ",
    "Code": "00906"
  },
  {
    "Name": "Kesogon ",
    "Code": "30215"
  },
  {
    "Name": "Kesses ",
    "Code": "30132"
  },
  {
    "Name": "Keumbu ",
    "Code": "40212"
  },
  {
    "Name": "Kevote ",
    "Code": "60108"
  },
  {
    "Name": "Khayega ",
    "Code": "50104"
  },
  {
    "Name": "Khumusalaba ",
    "Code": "50306"
  },
  {
    "Name": "Khwisero ",
    "Code": "50135"
  },
  {
    "Name": "Kiamariga ",
    "Code": "10122"
  },
  {
    "Name": "Kiambere ",
    "Code": "60109"
  },
  {
    "Name": "Kiambu ",
    "Code": "00900"
  },
  {
    "Name": "Kiamokama ",
    "Code": "40213"
  },
  {
    "Name": "Kiamutugu ",
    "Code": "10309"
  },
  {
    "Name": "Kiamwangi ",
    "Code": "00236"
  },
  {
    "Name": "Kiandu ",
    "Code": "10123"
  },
  {
    "Name": "Kianjai ",
    "Code": "60602"
  },
  {
    "Name": "Kianjokoma ",
    "Code": "60122"
  },
  {
    "Name": "Kianyaga ",
    "Code": "10301"
  },
  {
    "Name": "Kibigori ",
    "Code": "40119"
  },
  {
    "Name": "Kibingoti ",
    "Code": "10311"
  },
  {
    "Name": "Kibirichia ",
    "Code": "60201"
  },
  {
    "Name": "Kibugu ",
    "Code": "60112"
  },
  {
    "Name": "Kibwezi ",
    "Code": "90137"
  },
  {
    "Name": "Kiganjo ",
    "Code": "10102"
  },
  {
    "Name": "Kigumo ",
    "Code": "10203"
  },
  {
    "Name": "Kihoya ",
    "Code": "10207"
  },
  {
    "Name": "Kihuga Square ",
    "Code": "30110"
  },
  {
    "Name": "Kiirua ",
    "Code": "60207"
  },
  {
    "Name": "Kijabe ",
    "Code": "00220"
  },
  {
    "Name": "Kikima ",
    "Code": "90125"
  },
  {
    "Name": "Kikuyu ",
    "Code": "00902"
  },
  {
    "Name": "Kilala ",
    "Code": "90305"
  },
  {
    "Name": "Kilgoris ",
    "Code": "40700"
  },
  {
    "Name": "Kilibwoni ",
    "Code": "30315"
  },
  {
    "Name": "Kilifi ",
    "Code": "8010"
  },
  {
    "Name": "Kilindini ",
    "Code": "80107"
  },
  {
    "Name": "Kilingili ",
    "Code": "50315"
  },
  {
    "Name": "Kimahuri  ,  \n",
    "Code": "10125"
  },
  {
    "Name": "Kimana ",
    "Code": "00215"
  },
  {
    "Name": "Kimathi way ",
    "Code": "10140"
  },
  {
    "Name": "Kimbimbi ",
    "Code": "10310"
  },
  {
    "Name": "Kimilili ",
    "Code": "50204"
  },
  {
    "Name": "Kiminini ",
    "Code": "30209"
  },
  {
    "Name": "Kimoning ",
    "Code": "30120"
  },
  {
    "Name": "Kimulot ",
    "Code": "20225"
  },
  {
    "Name": "Kimunye ",
    "Code": "10312"
  },
  {
    "Name": "Kimwarer ",
    "Code": "30128"
  },
  {
    "Name": "Kinamba ",
    "Code": "20320"
  },
  {
    "Name": "Kinango ",
    "Code": "80405"
  },
  {
    "Name": "Kinari ",
    "Code": "00227"
  },
  {
    "Name": "Kindaruma ",
    "Code": "01031"
  },
  {
    "Name": "Kinoru ",
    "Code": "60216"
  },
  {
    "Name": "Kionyo ",
    "Code": "60211"
  },
  {
    "Name": "Kipevu ",
    "Code": "80116"
  },
  {
    "Name": "Kipkabus ",
    "Code": "30103"
  },
  {
    "Name": "Kipkarren River ",
    "Code": "50241"
  },
  {
    "Name": "Kipkelion ",
    "Code": "20202"
  },
  {
    "Name": "Kiplegetet ",
    "Code": "30117"
  },
  {
    "Name": "Kipsaina ",
    "Code": "30203"
  },
  {
    "Name": "Kipsaraman  ,  \n",
    "Code": "30411"
  },
  {
    "Name": "Kiptabach ",
    "Code": "30118"
  },
  {
    "Name": "Kiptagich ",
    "Code": "30402"
  },
  {
    "Name": "Kiptangwanyi ",
    "Code": "20133"
  },
  {
    "Name": "Kiptere ",
    "Code": "20213"
  },
  {
    "Name": "Kiptugumo ",
    "Code": "20208"
  },
  {
    "Name": "Kirengeti ",
    "Code": "20131"
  },
  {
    "Name": "Kiriani ",
    "Code": "10204"
  },
  {
    "Name": "Kiritiri ",
    "Code": "60113"
  },
  {
    "Name": "Kiritu ",
    "Code": "50313"
  },
  {
    "Name": "Kiriua ",
    "Code": "01017"
  },
  {
    "Name": "Kiruara ",
    "Code": "01018"
  },
  {
    "Name": "Kisanana ",
    "Code": "20144"
  },
  {
    "Name": "Kisasi ",
    "Code": "90204"
  },
  {
    "Name": "Kiserian ",
    "Code": "00206"
  },
  {
    "Name": "Kisii ",
    "Code": "40200"
  },
  {
    "Name": "Kisumu ",
    "Code": "40100"
  },
  {
    "Name": "Kitale ",
    "Code": "30200"
  },
  {
    "Name": "Kitengela ",
    "Code": "00241"
  },
  {
    "Name": "Kithimani ",
    "Code": "90124"
  },
  {
    "Name": "Kithimu ",
    "Code": "60114"
  },
  {
    "Name": "Kithyoko ",
    "Code": "90144"
  },
  {
    "Name": "Kitise ",
    "Code": "90303"
  },
  {
    "Name": "Kitivo ",
    "Code": "80316"
  },
  {
    "Name": "Kitui ",
    "Code": "90200"
  },
  {
    "Name": "Kiunduani ",
    "Code": "90148"
  },
  {
    "Name": "Kiusyani ",
    "Code": "90218"
  },
  {
    "Name": "Kivaani ",
    "Code": "90116"
  },
  {
    "Name": "Kivunga ",
    "Code": "90111"
  },
  {
    "Name": "Kocholya ",
    "Code": "50420"
  },
  {
    "Name": "Koilot ",
    "Code": "30314"
  },
  {
    "Name": "Kojwang ",
    "Code": "40317"
  },
  {
    "Name": "Kola ",
    "Code": "90108"
  },
  {
    "Name": "Kombewa ",
    "Code": "40102"
  },
  {
    "Name": "Kondele ",
    "Code": "40103"
  },
  {
    "Name": "Kondik  ,  \n",
    "Code": "40121"
  },
  {
    "Name": "Koracha ",
    "Code": "40639"
  },
  {
    "Name": "Koru ",
    "Code": "40104"
  },
  {
    "Name": "Kosele ",
    "Code": "40332"
  },
  {
    "Name": "Koyonzo ",
    "Code": "50117"
  },
  {
    "Name": "Kuresoi ",
    "Code": "20154"
  },
  {
    "Name": "Kutus ",
    "Code": "10304"
  },
  {
    "Name": "Kwale ",
    "Code": "80403"
  },
  {
    "Name": "Kwanza ",
    "Code": "30210"
  },
  {
    "Name": "Kwavonza ",
    "Code": "90215"
  },
  {
    "Name": "Kyatune ",
    "Code": "90220"
  },
  {
    "Name": "Kyeni ",
    "Code": "90209"
  },
  {
    "Name": "Kyuso ",
    "Code": "90401"
  },
  {
    "Name": "Laare ",
    "Code": "60601"
  },
  {
    "Name": "Ladhri Awasi ",
    "Code": "40122"
  },
  {
    "Name": "Laikipia Campus ",
    "Code": "20330"
  },
  {
    "Name": "Laisamis ",
    "Code": "60502"
  },
  {
    "Name": "Lamu ",
    "Code": "80500"
  },
  {
    "Name": "Lanet ",
    "Code": "20112"
  },
  {
    "Name": "Langas ",
    "Code": "30112"
  },
  {
    "Name": "Langata ",
    "Code": "00509"
  },
  {
    "Name": "Lavington ",
    "Code": "00603"
  },
  {
    "Name": "Leshau ",
    "Code": "20310"
  },
  {
    "Name": "Lessos ",
    "Code": "30302"
  },
  {
    "Name": "Likoni ",
    "Code": "80110"
  },
  {
    "Name": "Limuru ",
    "Code": "00217"
  },
  {
    "Name": "Lita  ",
    "Code": "90109"
  },
  {
    "Name": "Litein  ",
    "Code": "20210"
  },
  {
    "Name": "Lodwar  ",
    "Code": "30500"
  },
  {
    "Name": "Loitoktok ",
    "Code": "00209"
  },
  {
    "Name": "Loiyangalani ",
    "Code": "60501"
  },
  {
    "Name": "Lokichoggio ",
    "Code": "30503"
  },
  {
    "Name": "Lokitaung ",
    "Code": "30504"
  },
  {
    "Name": "Lokori ",
    "Code": "30506"
  },
  {
    "Name": "Lolgorian ",
    "Code": "40701"
  },
  {
    "Name": "Londian ",
    "Code": "20203"
  },
  {
    "Name": "Longisa ",
    "Code": "20402"
  },
  {
    "Name": "Lower Kabete ",
    "Code": "00604"
  },
  {
    "Name": "Luanda ",
    "Code": "50307"
  },
  {
    "Name": "Luandanyi ",
    "Code": "50219"
  },
  {
    "Name": "Luandeti ",
    "Code": "50240"
  },
  {
    "Name": "Lubao  ",
    "Code": "50118"
  },
  {
    "Name": "Lugari  ",
    "Code": "50108"
  },
  {
    "Name": "Lugingo ",
    "Code": "40622"
  },
  {
    "Name": "Luhano ",
    "Code": "40623"
  },
  {
    "Name": "Lukolis ",
    "Code": "50421"
  },
  {
    "Name": "Lukore ",
    "Code": "80408"
  },
  {
    "Name": "Lukume ",
    "Code": "50132"
  },
  {
    "Name": "Lumakanda ",
    "Code": "50242"
  },
  {
    "Name": "Lunga Lunga ",
    "Code": "80402"
  },
  {
    "Name": "Lunza ",
    "Code": "50119"
  },
  {
    "Name": "Lusingeti ",
    "Code": "00905"
  },
  {
    "Name": "Lusiola ",
    "Code": "50320"
  },
  {
    "Name": "Lutaso ",
    "Code": "50121"
  },
  {
    "Name": "Lwakhakha ",
    "Code": "50220"
  },
  {
    "Name": "Maai Mahiu ",
    "Code": "20147"
  },
  {
    "Name": "Mabusi ",
    "Code": "50235"
  },
  {
    "Name": "Machakos ",
    "Code": "90100"
  },
  {
    "Name": "Madaraka ",
    "Code": "01002"
  },
  {
    "Name": "Madiany ",
    "Code": "40613"
  },
  {
    "Name": "Madina ",
    "Code": "80207"
  },
  {
    "Name": "Magada ",
    "Code": "50321"
  },
  {
    "Name": "Magadi ",
    "Code": "00205"
  },
  {
    "Name": "Magena ",
    "Code": "40516"
  },
  {
    "Name": "Mago ",
    "Code": "50325"
  },
  {
    "Name": "Magombo ",
    "Code": "40507"
  },
  {
    "Name": "Magumoni ",
    "Code": "60403"
  },
  {
    "Name": "Magunga ",
    "Code": "40307"
  },
  {
    "Name": "Magutuni ",
    "Code": "60407"
  },
  {
    "Name": "Magwagwa ",
    "Code": "40508"
  },
  {
    "Name": "Mahanga ",
    "Code": "50322"
  },
  {
    "Name": "Mairo Inya ",
    "Code": "20314"
  },
  {
    "Name": "Maji Mazuri ",
    "Code": "20145"
  },
  {
    "Name": "Makimeny ",
    "Code": "20418"
  },
  {
    "Name": "Makindu ",
    "Code": "90138"
  },
  {
    "Name": "Makongeni ",
    "Code": "00510"
  },
  {
    "Name": "Maktau ",
    "Code": "80315"
  },
  {
    "Name": "Makueni ",
    "Code": "90300"
  },
  {
    "Name": "Makumbi ",
    "Code": "20149"
  },
  {
    "Name": "Makunga ",
    "Code": "50133"
  },
  {
    "Name": "Makupa ",
    "Code": "80112"
  },
  {
    "Name": "Makutano ",
    "Code": "20141"
  },
  {
    "Name": "Makuyu ",
    "Code": "01020"
  },
  {
    "Name": "Malaha ",
    "Code": "50122"
  },
  {
    "Name": "Malakisi ",
    "Code": "50209"
  },
  {
    "Name": "Malava ",
    "Code": "50103"
  },
  {
    "Name": "Malindi ",
    "Code": "80200"
  },
  {
    "Name": "Malinya ",
    "Code": "50123"
  },
  {
    "Name": "Mandera ",
    "Code": "70300"
  },
  {
    "Name": "Manga ",
    "Code": "40509"
  },
  {
    "Name": "Manyani ",
    "Code": "80301"
  },
  {
    "Name": "Manyatta ",
    "Code": "60101"
  },
  {
    "Name": "Manyuanda ",
    "Code": "40625"
  },
  {
    "Name": "Manyulia ",
    "Code": "50126"
  },
  {
    "Name": "Maragoli ",
    "Code": "50300"
  },
  {
    "Name": "Maragua ",
    "Code": "10205"
  },
  {
    "Name": "Maralal ",
    "Code": "20600"
  },
  {
    "Name": "Marani ",
    "Code": "40214"
  },
  {
    "Name": "Mariakani  ",
    "Code": "80113"
  },
  {
    "Name": "Marigat  ",
    "Code": "30403"
  },
  {
    "Name": "Marima  ",
    "Code": "60408"
  },
  {
    "Name": "Marimanti  ",
    "Code": "60215"
  },
  {
    "Name": "Mariwa  ",
    "Code": "40408"
  },
  {
    "Name": "Marmanet  ",
    "Code": "20322"
  },
  {
    "Name": "Marsabit  ",
    "Code": "60500"
  },
  {
    "Name": "Masana  ",
    "Code": "50324"
  },
  {
    "Name": "Maseno  ",
    "Code": "40105"
  },
  {
    "Name": "Mashini  ",
    "Code": "80312"
  },
  {
    "Name": "Mashuru ",
    "Code": "01103"
  },
  {
    "Name": "Masii  ",
    "Code": "90101"
  },
  {
    "Name": "Masimba  ",
    "Code": "40215"
  },
  {
    "Name": "Masinde Muliro University ",
    "Code": "50139"
  },
  {
    "Name": "Masinga  ",
    "Code": "90141"
  },
  {
    "Name": "Matayos  ",
    "Code": "50422"
  },
  {
    "Name": "Matete  ",
    "Code": "50136"
  },
  {
    "Name": "Mathare Valley ",
    "Code": "00611"
  },
  {
    "Name": "Mathuki   ,  \n",
    "Code": "90406"
  },
  {
    "Name": "Matiliku  ",
    "Code": "90140"
  },
  {
    "Name": "Matinyani  ",
    "Code": "90210"
  },
  {
    "Name": "Matuga  ",
    "Code": "80406"
  },
  {
    "Name": "Matunda  ",
    "Code": "30205"
  },
  {
    "Name": "Matuu  ",
    "Code": "90119"
  },
  {
    "Name": "Mau Narok  ",
    "Code": "20111"
  },
  {
    "Name": "Mau Summit ",
    "Code": "20122"
  },
  {
    "Name": "Maua  ",
    "Code": "60600"
  },
  {
    "Name": "Maungu  ",
    "Code": "80317"
  },
  {
    "Name": "Mavindini ",
    "Code": "90304"
  },
  {
    "Name": "Mawego  ",
    "Code": "40310"
  },
  {
    "Name": "Mazeras  ",
    "Code": "80114"
  },
  {
    "Name": "Mbagathi  ",
    "Code": "00503"
  },
  {
    "Name": "Mbakalo  ",
    "Code": "50236"
  },
  {
    "Name": "Mbari Ya Njiku ",
    "Code": "00231"
  },
  {
    "Name": "Mbiri  ",
    "Code": "10233"
  },
  {
    "Name": "Mbita  ",
    "Code": "40305"
  },
  {
    "Name": "Mbitini  ",
    "Code": "90214"
  },
  {
    "Name": "Mbiuni  ",
    "Code": "90110"
  },
  {
    "Name": "Mbumbuni  ",
    "Code": "00127"
  },
  {
    "Name": "Mchumbi Road ",
    "Code": "00504"
  },
  {
    "Name": "Menengai  ",
    "Code": "20104"
  },
  {
    "Name": "Merigi  ",
    "Code": "20419"
  },
  {
    "Name": "Merti  ",
    "Code": "60303"
  },
  {
    "Name": "Meru  ",
    "Code": "60200"
  },
  {
    "Name": "Mfangano  ",
    "Code": "40319"
  },
  {
    "Name": "Mgambonyi  ",
    "Code": "80313"
  },
  {
    "Name": "Mgange  ",
    "Code": "80306"
  },
  {
    "Name": "Miathene  ",
    "Code": "60604"
  },
  {
    "Name": "Migioini  ",
    "Code": "01029"
  },
  {
    "Name": "Migwani  ",
    "Code": "90402"
  },
  {
    "Name": "Miharati  ",
    "Code": "20301"
  },
  {
    "Name": "Mikayi  ",
    "Code": "40225"
  },
  {
    "Name": "Mikinduri  ",
    "Code": "60607"
  },
  {
    "Name": "Milimani  ",
    "Code": "50138"
  },
  {
    "Name": "Milton Siding  ",
    "Code": "20123"
  },
  {
    "Name": "Mirangine  ",
    "Code": "20124"
  },
  {
    "Name": "Mirogi  ",
    "Code": "40320"
  },
  {
    "Name": "Misikhu  ",
    "Code": "50207"
  },
  {
    "Name": "Misori  ",
    "Code": "40626"
  },
  {
    "Name": "Mitaboni  ",
    "Code": "90104"
  },
  {
    "Name": "Mitunguu  ",
    "Code": "60204"
  },
  {
    "Name": "Miu  ",
    "Code": "90112"
  },
  {
    "Name": "Miwani  ",
    "Code": "40106"
  },
  {
    "Name": "Mkomani  ",
    "Code": "80106"
  },
  {
    "Name": "Mobi Plaza  ",
    "Code": "00620"
  },
  {
    "Name": "Mochongoi  ",
    "Code": "20312"
  },
  {
    "Name": "Mogogosiek  ",
    "Code": "20403"
  },
  {
    "Name": "Mogotio  ",
    "Code": "20105"
  },
  {
    "Name": "Moi Airport  ",
    "Code": "80115"
  },
  {
    "Name": "Moi University  ",
    "Code": "30107"
  },
  {
    "Name": "Moi-ben  ",
    "Code": "30104"
  },
  {
    "Name": "moi`s Bridge  ",
    "Code": "30202"
  },
  {
    "Name": "Mokomoni  ",
    "Code": "40510"
  },
  {
    "Name": "Mokowe  ",
    "Code": "80502"
  },
  {
    "Name": "Molo  ",
    "Code": "20106"
  },
  {
    "Name": "Mombasa  ",
    "Code": "80100"
  },
  {
    "Name": "Mosoriot  ",
    "Code": "30307"
  },
  {
    "Name": "Moyale  ",
    "Code": "60700"
  },
  {
    "Name": "Mpeketoni  ",
    "Code": "80503"
  },
  {
    "Name": "Msambweni  ",
    "Code": "80404"
  },
  {
    "Name": "Mtito Andei  ",
    "Code": "90128"
  },
  {
    "Name": "Mtongwe ",
    "Code": "80111"
  },
  {
    "Name": "Mtopanga ",
    "Code": "80117"
  },
  {
    "Name": "Mtwapa  ",
    "Code": "80109"
  },
  {
    "Name": "Mubwayo ",
    "Code": "50423"
  },
  {
    "Name": "Muddo Gashe ",
    "Code": "70102"
  },
  {
    "Name": "Mudhiero ",
    "Code": "40627"
  },
  {
    "Name": "Muguga  ",
    "Code": "00228"
  },
  {
    "Name": "Mugunda ",
    "Code": "10129"
  },
  {
    "Name": "Muhoroni ",
    "Code": "40107"
  },
  {
    "Name": "Muhotetu ",
    "Code": "20323"
  },
  {
    "Name": "Muhuru Bay ",
    "Code": "40409"
  },
  {
    "Name": "Mukerenju ",
    "Code": "01023"
  },
  {
    "Name": "Mukeu   ",
    "Code": "20315"
  },
  {
    "Name": "Mukuro  ",
    "Code": "40410"
  },
  {
    "Name": "Mukurweini ",
    "Code": "10103"
  },
  {
    "Name": "Mulango  ",
    "Code": "90216"
  },
  {
    "Name": "Muluanda ",
    "Code": "50428"
  },
  {
    "Name": "Mumias  ",
    "Code": "50102"
  },
  {
    "Name": "Mundoro ",
    "Code": "00235"
  },
  {
    "Name": "Mungatsi ",
    "Code": "50425"
  },
  {
    "Name": "Muranga ",
    "Code": "10200"
  },
  {
    "Name": "Muruka  ",
    "Code": "01024"
  },
  {
    "Name": "Murumba ",
    "Code": "50426"
  },
  {
    "Name": "Murungaru ",
    "Code": "20316"
  },
  {
    "Name": "Mururi  ",
    "Code": "60120"
  },
  {
    "Name": "Musanda ",
    "Code": "50125"
  },
  {
    "Name": "Mutha  ",
    "Code": "90211"
  },
  {
    "Name": "Muthaiga ",
    "Code": "00619"
  },
  {
    "Name": "Muthetheni ",
    "Code": "90113"
  },
  {
    "Name": "Mutituni ",
    "Code": "90117"
  },
  {
    "Name": "Mutomo ",
    "Code": "90201"
  },
  {
    "Name": "Mutumbu ",
    "Code": "40628"
  },
  {
    "Name": "Muumandu ",
    "Code": "90114"
  },
  {
    "Name": "Mwala  ",
    "Code": "90102"
  },
  {
    "Name": "Mwatate  ",
    "Code": "80305"
  },
  {
    "Name": "Mweiga  ",
    "Code": "10104"
  },
  {
    "Name": "Mwingi  ",
    "Code": "90400"
  },
  {
    "Name": "Nairage Enkare ",
    "Code": "20504"
  },
  {
    "Name": "Nairobi GPO ",
    "Code": "00100"
  },
  {
    "Name": "Naishi  ",
    "Code": "20142"
  },
  {
    "Name": "Naitiri  ",
    "Code": "50211"
  },
  {
    "Name": "Naivasha  ",
    "Code": "20117"
  },
  {
    "Name": "Nakuru ",
    "Code": "20100"
  },
  {
    "Name": "Namanga  ",
    "Code": "00207"
  },
  {
    "Name": "Nambacha ",
    "Code": "50127"
  },
  {
    "Name": "Nambale ",
    "Code": "50409"
  },
  {
    "Name": "Nandi Hills ",
    "Code": "30301"
  },
  {
    "Name": "Nangili ",
    "Code": "50239"
  },
  {
    "Name": "Nango ",
    "Code": "40615"
  },
  {
    "Name": "Nanyuki ",
    "Code": "10400"
  },
  {
    "Name": "Naro moru ",
    "Code": "10105"
  },
  {
    "Name": "Narok ",
    "Code": "20500"
  },
  {
    "Name": "Ndalani ",
    "Code": "90118"
  },
  {
    "Name": "Ndalat  ",
    "Code": "30123"
  },
  {
    "Name": "Ndalu ",
    "Code": "50212"
  },
  {
    "Name": "Ndanai ",
    "Code": "20404"
  },
  {
    "Name": "Ndaragwa ",
    "Code": "20306"
  },
  {
    "Name": "Ndenderu ",
    "Code": "00230"
  },
  {
    "Name": "Ndere ",
    "Code": "40629"
  },
  {
    "Name": "Nderu ",
    "Code": "00229"
  },
  {
    "Name": "Ndhiwa ",
    "Code": "40302"
  },
  {
    "Name": "Ndigwa ",
    "Code": "40630"
  },
  {
    "Name": "Ndithini ",
    "Code": "01016"
  },
  {
    "Name": "Ndooa ",
    "Code": "90202"
  },
  {
    "Name": "Ndori ",
    "Code": "40602"
  },
  {
    "Name": "Ndunyu Njeru ",
    "Code": "20317"
  },
  {
    "Name": "Ngambwa ",
    "Code": "80311"
  },
  {
    "Name": "Nganduri ",
    "Code": "60115"
  },
  {
    "Name": "Ngara Road ",
    "Code": "00600"
  },
  {
    "Name": "Ngecha ",
    "Code": "00218"
  },
  {
    "Name": "Ngewa ",
    "Code": "00901"
  },
  {
    "Name": "Nginyang ",
    "Code": "30404"
  },
  {
    "Name": "Ngiya ",
    "Code": "40603"
  },
  {
    "Name": "Ngong Hills ",
    "Code": "00208"
  },
  {
    "Name": "Ngong Road ",
    "Code": "00505"
  },
  {
    "Name": "Ngorika ",
    "Code": "20126"
  },
  {
    "Name": "Nguni ",
    "Code": "90407"
  },
  {
    "Name": "Nguyoini ",
    "Code": "10224"
  },
  {
    "Name": "Ngwata ",
    "Code": "90129"
  },
  {
    "Name": "Njipiship ",
    "Code": "40702"
  },
  {
    "Name": "Njoro ",
    "Code": "20107"
  },
  {
    "Name": "Nkondi ",
    "Code": "60214"
  },
  {
    "Name": "Nkubu ",
    "Code": "60202"
  },
  {
    "Name": "North Kinangop ",
    "Code": "20318"
  },
  {
    "Name": "Nthongoini ",
    "Code": "90149"
  },
  {
    "Name": "Ntimaru ",
    "Code": "40417"
  },
  {
    "Name": "Nunguni ",
    "Code": "90130"
  },
  {
    "Name": "Nuu ",
    "Code": "90408"
  },
  {
    "Name": "Nyabondo ",
    "Code": "40124"
  },
  {
    "Name": "Nyandorera ",
    "Code": "40631"
  },
  {
    "Name": "Nyahururu ",
    "Code": "20300"
  },
  {
    "Name": "Nyali ",
    "Code": "80118"
  },
  {
    "Name": "Nyamache ",
    "Code": "40203"
  },
  {
    "Name": "Nyamarambe ",
    "Code": "40206"
  },
  {
    "Name": "Nyambunwa ",
    "Code": "40205"
  },
  {
    "Name": "Nyamira ",
    "Code": "40500"
  },
  {
    "Name": "Nyamonye ",
    "Code": "40632"
  },
  {
    "Name": "Nyadhiwa ",
    "Code": "40333"
  },
  {
    "Name": "Nyangande ",
    "Code": "40126"
  },
  {
    "Name": "Nyangori ",
    "Code": "40127"
  },
  {
    "Name": "Nyangusu ",
    "Code": "40218"
  },
  {
    "Name": "Nyangweso ",
    "Code": "40311"
  },
  {
    "Name": "Nyansiongo ",
    "Code": "40502"
  },
  {
    "Name": "Nyaramba ",
    "Code": "40514"
  },
  {
    "Name": "Nyaru ",
    "Code": "30131"
  },
  {
    "Name": "Nyatike ",
    "Code": "40402"
  },
  {
    "Name": "Nyawara ",
    "Code": "40633"
  },
  {
    "Name": "Nyayo Stadium ",
    "Code": "00506"
  },
  {
    "Name": "Nyeri",
    "Code": "10100"
  },
  {
    "Name": "Nyilima ",
    "Code": "40611"
  },
  {
    "Name": "Nzeeka ",
    "Code": "90136"
  },
  {
    "Name": "Nziu ",
    "Code": "90143"
  },
  {
    "Name": "Nzoia ",
    "Code": "50237"
  },
  {
    "Name": "Obekai",
    "Code": "50427"
  },
  {
    "Name": "Oboch",
    "Code": "40129"
  },
  {
    "Name": "Ogembo",
    "Code": "40204"
  },
  {
    "Name": "Ogen ",
    "Code": "40130"
  },
  {
    "Name": "Ogongo",
    "Code": "40323"
  },
  {
    "Name": "Okia",
    "Code": "90301"
  },
  {
    "Name": "Ol Joro Orok",
    "Code": "20302"
  },
  {
    "Name": "Ol Kalou",
    "Code": "20303"
  },
  {
    "Name": "Olbutyo",
    "Code": "20421"
  },
  {
    "Name": "Olenguruone",
    "Code": "20152"
  },
  {
    "Name": "Olkurto",
    "Code": "20502"
  },
  {
    "Name": "Olololunga",
    "Code": "20503"
  },
  {
    "Name": "Oloomirani",
    "Code": "20424"
  },
  {
    "Name": "Oltepesi",
    "Code": "00213"
  },
  {
    "Name": "Omboga",
    "Code": "40306"
  },
  {
    "Name": "Omogonchoro",
    "Code": "40221"
  },
  {
    "Name": "Ongata Rongai",
    "Code": "00511"
  },
  {
    "Name": "Oriang ",
    "Code": "40227"
  },
  {
    "Name": "Ortum",
    "Code": "30602"
  },
  {
    "Name": "Otaro",
    "Code": "40324"
  },
  {
    "Name": "Othaya",
    "Code": "10106"
  },
  {
    "Name": "Othoch Rakuom",
    "Code": "40411"
  },
  {
    "Name": "Othoro",
    "Code": "40224"
  },
  {
    "Name": "Otonglo",
    "Code": "40108"
  },
  {
    "Name": "Oyani-masii",
    "Code": "40334"
  },
  {
    "Name": "Oyugis",
    "Code": "40222"
  },
  {
    "Name": "Pala",
    "Code": "40329"
  },
  {
    "Name": "Pap Onditi",
    "Code": "40111"
  },
  {
    "Name": "Parklands",
    "Code": "00623"
  },
  {
    "Name": "Passenga",
    "Code": "20311"
  },
  {
    "Name": "Paw Akuche",
    "Code": "40131"
  },
  {
    "Name": "Pembe Tatu",
    "Code": "40113"
  },
  {
    "Name": "Plateau",
    "Code": "30116"
  },
  {
    "Name": "Port Victoria",
    "Code": "50410"
  },
  {
    "Name": "Quarry Road",
    "Code": "00624"
  },
  {
    "Name": "Rabuor",
    "Code": "40132"
  },
  {
    "Name": "Racecourse Road",
    "Code": "00617"
  },
  {
    "Name": "Ragengni",
    "Code": "40604"
  },
  {
    "Name": "Rakwaro",
    "Code": "40325"
  },
  {
    "Name": "Ramba",
    "Code": "40330"
  },
  {
    "Name": "Ramula",
    "Code": "40142"
  },
  {
    "Name": "Ranen",
    "Code": "40412"
  },
  {
    "Name": "Rangala",
    "Code": "40634"
  },
  {
    "Name": "Rangwe",
    "Code": "40303"
  },
  {
    "Name": "Rapogi",
    "Code": "40403"
  },
  {
    "Name": "Ratta",
    "Code": "40137"
  },
  {
    "Name": "Reru ",
    "Code": "40133"
  },
  {
    "Name": "Rhamu",
    "Code": "70302"
  },
  {
    "Name": "Rigoma",
    "Code": "40511"
  },
  {
    "Name": "Ringa",
    "Code": "40226"
  },
  {
    "Name": "Riochanda",
    "Code": "40512"
  },
  {
    "Name": "Riosiri",
    "Code": "40220"
  },
  {
    "Name": "Riruta",
    "Code": "00512"
  },
  {
    "Name": "Rodi Kopany",
    "Code": "40326"
  },
  {
    "Name": "Ronald Ngala Street",
    "Code": "00300"
  },
  {
    "Name": "Ronda",
    "Code": "20127"
  },
  {
    "Name": "Rongai",
    "Code": "20108"
  },
  {
    "Name": "Rongo",
    "Code": "40404"
  },
  {
    "Name": "Roret",
    "Code": "20204"
  },
  {
    "Name": "Ruaraka",
    "Code": "00618"
  },
  {
    "Name": "Ruiru",
    "Code": "00232"
  },
  {
    "Name": "Rumuruti",
    "Code": "20321"
  },
  {
    "Name": "Runyenjes",
    "Code": "60103"
  },
  {
    "Name": "Ruri",
    "Code": "20313"
  },
  {
    "Name": "Ruringu",
    "Code": "10133"
  },
  {
    "Name": "Rusinga  \n",
    "Code": "40327"
  },
  {
    "Name": "Ruthangati ",
    "Code": "10134"
  },
  {
    "Name": "Sabatia",
    "Code": "20143"
  },
  {
    "Name": "Saboti",
    "Code": "30211"
  },
  {
    "Name": "Sagalla",
    "Code": "80308"
  },
  {
    "Name": "Sagana",
    "Code": "10230"
  },
  {
    "Name": "Samburu",
    "Code": "80120"
  },
  {
    "Name": "Samitsi",
    "Code": "50128"
  },
  {
    "Name": "Sare",
    "Code": "40405"
  },
  {
    "Name": "Sarit Centre",
    "Code": "00606"
  },
  {
    "Name": "Sasumua Road",
    "Code": "00513"
  },
  {
    "Name": "Sawagongo",
    "Code": "40612"
  },
  {
    "Name": "Sega",
    "Code": "40614"
  },
  {
    "Name": "Serem",
    "Code": "50308"
  },
  {
    "Name": "Seretunin",
    "Code": "30407"
  },
  {
    "Name": "Shabaab",
    "Code": "20150"
  },
  {
    "Name": "Shianda",
    "Code": "50106"
  },
  {
    "Name": "Shiatsala",
    "Code": "50129"
  },
  {
    "Name": "Shibuli",
    "Code": "50130"
  },
  {
    "Name": "Shimanyiro",
    "Code": "50131"
  },
  {
    "Name": "Shimba Hills",
    "Code": "80407"
  },
  {
    "Name": "Shinyalu",
    "Code": "50107"
  },
  {
    "Name": "Siakago",
    "Code": "60104"
  },
  {
    "Name": "Siaya",
    "Code": "40600"
  },
  {
    "Name": "Sidindi",
    "Code": "40605"
  },
  {
    "Name": "Sifuyo",
    "Code": "40643"
  },
  {
    "Name": "Sigomre",
    "Code": "40635"
  },
  {
    "Name": "Sigor",
    "Code": "20405"
  },
  {
    "Name": "Sigoti",
    "Code": "40135"
  },
  {
    "Name": "Sigowet",
    "Code": "20212"
  },
  {
    "Name": "Sikinwa",
    "Code": "30217"
  },
  {
    "Name": "Silibwet",
    "Code": "20422"
  },
  {
    "Name": "Simat",
    "Code": "30127"
  },
  {
    "Name": "Sindo",
    "Code": "40308"
  },
  {
    "Name": "Singore",
    "Code": "30703"
  },
  {
    "Name": "Sio Port",
    "Code": "50401"
  },
  {
    "Name": "Sipili",
    "Code": "20326"
  },
  {
    "Name": "Sirembe",
    "Code": "40636"
  },
  {
    "Name": "Sirende",
    "Code": "30213"
  },
  {
    "Name": "Sirisia",
    "Code": "50208"
  },
  {
    "Name": "Sirongo",
    "Code": "40642"
  },
  {
    "Name": "Solai",
    "Code": "20128"
  },
  {
    "Name": "Sololo",
    "Code": "60701"
  },
  {
    "Name": "Sondu",
    "Code": "40109"
  },
  {
    "Name": "Songhor",
    "Code": "40110"
  },
  {
    "Name": "Sorget",
    "Code": "20223"
  },
  {
    "Name": "Sosiot",
    "Code": "20205"
  },
  {
    "Name": "Sotik",
    "Code": "20406"
  },
  {
    "Name": "South Horr",
    "Code": "20604"
  },
  {
    "Name": "South Kinangop",
    "Code": "20319"
  },
  {
    "Name": "Soy",
    "Code": "30105"
  },
  {
    "Name": "Suba Kuria",
    "Code": "40418"
  },
  {
    "Name": "Subukia",
    "Code": "20109"
  },
  {
    "Name": "Suguta Mar Mar",
    "Code": "20602"
  },
  {
    "Name": "Sulmac",
    "Code": "20151"
  },
  {
    "Name": "Sultan Hamud",
    "Code": "90132"
  },
  {
    "Name": "Suna",
    "Code": "40400"
  },
  {
    "Name": "Suwerwa",
    "Code": "30212"
  },
  {
    "Name": "Tabani",
    "Code": "50238"
  },
  {
    "Name": "Tala",
    "Code": "90131"
  },
  {
    "Name": "Tambach",
    "Code": "30704"
  },
  {
    "Name": "Tarasaa",
    "Code": "80203"
  },
  {
    "Name": "Tausa",
    "Code": "80309"
  },
  {
    "Name": "Taveta",
    "Code": "80302"
  },
  {
    "Name": "Tawa",
    "Code": "90133"
  },
  {
    "Name": "Tenges",
    "Code": "30405"
  },
  {
    "Name": "Thaara",
    "Code": "10110"
  },
  {
    "Name": "Thangathi",
    "Code": "10135"
  },
  {
    "Name": "Thare",
    "Code": "01026"
  },
  {
    "Name": "Thigio",
    "Code": "00210"
  },
  {
    "Name": "Thika",
    "Code": "01000"
  },
  {
    "Name": "Tigiji",
    "Code": "60210"
  },
  {
    "Name": "Timau",
    "Code": "10406"
  },
  {
    "Name": "Timber Mill Road",
    "Code": "20110"
  },
  {
    "Name": "Timboroa",
    "Code": "30108"
  },
  {
    "Name": "Tiriki",
    "Code": "50309"
  },
  {
    "Name": "Tom Mboya",
    "Code": "00400"
  },
  {
    "Name": "Tombe",
    "Code": "40513"
  },
  {
    "Name": "Tongaren",
    "Code": "30218"
  },
  {
    "Name": "Torongo",
    "Code": "20153"
  },
  {
    "Name": "Tot",
    "Code": "30707"
  },
  {
    "Name": "Tseikuru",
    "Code": "90409"
  },
  {
    "Name": "Tulia",
    "Code": "90203"
  },
  {
    "Name": "Tumu Tumu",
    "Code": "10136"
  },
  {
    "Name": "Tunyai",
    "Code": "60213"
  },
  {
    "Name": "Turbo",
    "Code": "30106"
  },
  {
    "Name": "Turi",
    "Code": "20129"
  },
  {
    "Name": "Uaso Nyiro",
    "Code": "10137"
  },
  {
    "Name": "Ugunja",
    "Code": "40606"
  },
  {
    "Name": "Uhuru Gardens",
    "Code": "00517"
  },
  {
    "Name": "Ukunda",
    "Code": "80400"
  },
  {
    "Name": "Ukwala",
    "Code": "40607"
  },
  {
    "Name": "Uplands",
    "Code": "00222"
  },
  {
    "Name": "Uranga",
    "Code": "40608"
  },
  {
    "Name": "Uriri",
    "Code": "40228"
  },
  {
    "Name": "Usenge",
    "Code": "40609"
  },
  {
    "Name": "Usigu",
    "Code": "40637"
  },
  {
    "Name": "Uthiru",
    "Code": "00605"
  },
  {
    "Name": "Valley Arcade",
    "Code": "00514"
  },
  {
    "Name": "Vihiga",
    "Code": "50310"
  },
  {
    "Name": "Village Market",
    "Code": "00621"
  },
  {
    "Name": "Vipingo",
    "Code": "80119"
  },
  {
    "Name": "Vitengeni",
    "Code": "80211"
  },
  {
    "Name": "Viwandani",
    "Code": "00507"
  },
  {
    "Name": "Voi",
    "Code": "80300"
  },
  {
    "Name": "Voo",
    "Code": "90212"
  },
  {
    "Name": "Wagusu",
    "Code": "40638"
  },
  {
    "Name": "Waithaka",
    "Code": "00613"
  },
  {
    "Name": "Wajir",
    "Code": "70200"
  },
  {
    "Name": "Wamagana",
    "Code": "10138"
  },
  {
    "Name": "Wamba",
    "Code": "20603"
  },
  {
    "Name": "Wamunyu",
    "Code": "90103"
  },
  {
    "Name": "Wamwangi",
    "Code": "01010"
  },
  {
    "Name": "Wangige",
    "Code": "00614"
  },
  {
    "Name": "Wanguru",
    "Code": "10303"
  },
  {
    "Name": "Wanjengi",
    "Code": "10225"
  },
  {
    "Name": "Wanjohi",
    "Code": "20305"
  },
  {
    "Name": "Watalii Road",
    "Code": "80204"
  },
  {
    "Name": "Watamu",
    "Code": "80202"
  },
  {
    "Name": "Webuye",
    "Code": "50205"
  },
  {
    "Name": "Weiwei",
    "Code": "30603"
  },
  {
    "Name": "Werugha",
    "Code": "80303"
  },
  {
    "Name": "Westlands",
    "Code": "00800"
  },
  {
    "Name": "Winam",
    "Code": "40141"
  },
  {
    "Name": "Witu",
    "Code": "80504"
  },
  {
    "Name": "Wiyumiririe",
    "Code": "20329"
  },
  {
    "Name": "Wodanga",
    "Code": "50311"
  },
  {
    "Name": "Wundanyi ",
    "Code": "80304"
  },
  {
    "Name": "Yala ",
    "Code": "40610"
  },
  {
    "Name": "Yaya Towers ",
    "Code": "00508"
  },
  {
    "Name": "Yoani ",
    "Code": "90134"
  },
  {
    "Name": "Ziwa ",
    "Code": "30214"
  },
  {
    "Name": "Zombe ",
    "Code": "90213"
  }
]
