[
  {
    "Name": "Father",
    "Code": "FAT"
  },
  {
    "Name": "Mother",
    "Code": "MOT"
  },
  {
    "Name": "Brother",
    "Code": "BRO"
  },
  {
    "Name": "Sister",
    "Code": "SIS"
  },
  {
    "Name": "Husband",
    "Code": "HUS"
  },
  {
    "Name": "Wife",
    "Code": "WIF"
  },
  {
    "Name": "Relative",
    "Code": "REL"
  },
  {
    "Name": "Friend",
    "Code": "FRI"
  },
  {
    "Name": "Neighbor",
    "Code": "NEI"
  }
]
